Chapter 6 Data transformation with dplyr | _main.knit
…
group_by() changes the scope of each function to operate on a group-by-group basis.

The idea is to assemble these functions into a pipeline: each function takes in an existing data frame, creates a new data frame and passes it to the next function.

6.2 Filtering rows with filter()

6.2.1 Filtering conditions

filter() allows us to create a subset of a data frame by grabbing the rows which meet some specified logical condition.

# return the flights on January 1st
filter(df, month == 1, day == 1)

## # A tibble: 842 × 19
##     year month   day dep_time sched_dep_time dep_delay arr_time sched_arr_time
##    <int> <int> <int>    <int>          <int>     <dbl>    <int>          <int>
##  1  2013     1     1      517            515         2      830            819
##  2  2013     1     1      533            529         4      850            830
##  3  2013     1     1      542            540         2      923            850
##  4  2013     1     1      544            545        -1     1004           1022
##  5  2013     1     1      554            600        -6      812            837
##  6  2013     1     1      554            558        -4      740            728
##  7  2013     1     1      555            600        -5      913            854
##  8  2013     1     1      557            600        -3      709            723
##  9  2013     1     1      557            600        -3      838            846
## 10  2013     1     1      558            600        -2      753            745
## # … with 832 more rows, and 11 more variables: arr_delay <dbl>, carrier <chr>,
## #   flight <int>, tailnum <chr>, origin <chr>, dest <chr>, air_time <dbl>,
## #   distance <dbl>, hour <dbl>, minute <dbl>, time_hour <dttm>

Notice that the logical comparison month == 1 is being made element-wise down the month column. The same is true for day == 1. The general syntax of logical operators and operations on columns is always like this, i.e. if you see a column name in an operation, it is happening element-wise.

We can combine these logical conditions together using the usual boolean operators:

# return the flights in January or February
filter(df, month == 1 | month == 2)

## # A tibble: 51,955 × 19
##     year month   day dep_time sched_dep_time dep_delay arr_time sched_arr_time
##    <int> <int> <int>    <int>          <int>     <dbl>    <int>          <int>
##  1  2013     1     1      517            515         2      830            819
##  2  2013     1     1      533            529         4      850            830
##  3  2013     1     1      542            540         2      923            850
##  4  2013     1     1      544            545        -1     1004           1022
##  5  2013     1     1      554            600        -6      812            837
##  6  2013     1     1      554            558        -4      740            728
##  7  2013     1     1      555            600        -5      913            854
##  8  2013     1     1      557            600        -3      709            723
##  9  2013     1     1      557            600        -3      838            846
## 10  2013     1     1      558            600        -2      753            745
## # … with 51,945 more rows, and 11 more variables: arr_delay <dbl>,
## #   carrier <chr>, flight <int>, tailnum <chr>, origin <chr>, dest <chr>,
## #   air_time <dbl>, distance <dbl>, hour <dbl>, minute <dbl>, time_hour <dttm>

# return all flights except those by United Airlines
filter(df, carrier != "UA")

## # A tibble: 278,111 × 19
##     year month   day dep_time sched_dep_time dep_delay arr_time sched_arr_time
##    <int> <int> <int>    <int>          <int>     <dbl>    <int>          <int>
##  1  2013     1     1      542            540         2      923            850
##  2  2013     1     1      544            545        -1     1004           1022
##  3  2013     1     1      554            600        -6      812            837
##  4  2013     1     1      555            600        -5      913            854
##  5  2013     1     1      557            600        -3      709            723
##  6  2013     1     1      557            600        -3      838            846
##  7  2013     1     1      558            600        -2      753            745
##  8  2013     1     1      558            600        -2      849            851
##  9  2013     1     1      558            600        -2      853            856
## 10  2013     1     1      559            600        -1      941            910
## # … with 278,101 more rows, and 11 more variables: arr_delay <dbl>,
## #   carrier <chr>, flight <int>, tailnum <chr>, origin <chr>, dest <chr>,
## #   air_time <dbl>, distance <dbl>, hour <dbl>, minute <dbl>, time_hour <dttm>

# return all flights except United flights originating from JFK
filter(df, !(carrier == "UA" & origin == "JFK"))

## # A tibble: 332,242 × 19
##     year month   day dep_time sched_dep_time dep_delay arr_time sched_arr_time
##    <int> <int> <int>    <int>          <int>     <dbl>    <int>          <int>
##  1  2013     1     1      517            515         2      830            819
##  2  2013     1     1      533            529         4      850            830
##  3  2013     1     1      542            540         2      923            850
##  4  2013     1     1      544            545        -1     1004           1022
##  5  2013     1     1      554            600        -6      812            837
##  6  2013     1     1      554            558        -4      740            728
##  7  2013     1     1      555            600        -5      913            854
##  8  2013     1     1      557            600        -3      709            723
##  9  2013     1     1      557            600        -3      838            846
## 10  2013     1     1      558            600        -2      753            745
## # … with 332,232 more rows, and 11 more variables: arr_delay <dbl>,
## #   carrier <chr>, flight <int>, tailnum <chr>, origin <chr>, dest <chr>,
## #   air_time <dbl>, distance <dbl>, hour <dbl>, minute <dbl>, time_hour <dttm>

Any operator which returns a logical value is a valid condition. For example, let’s say we wanted to get all the flights from January to June of 2013. Instead of chaining together 6 different “OR” statements, we can instead use the %in% operator:

# return the flights from Jan to June
filter(df, year == 2013, month %in% c(1,2,3,4,5,6))

## # A tibble: 166,158 × 19
##     year month   day dep_time sched_dep_time dep_delay arr_time sched_arr_time
##    <int> <int> <int>    <int>          <int>     <dbl>    <int>          <int>
##  1  2013     1     1      517            515         2      830            819
##  2  2013     1     1      533            529         4      850            830
##  3  2013     1     1      542            540         2      923            850
##  4  2013     1     1      544            545        -1     1004           1022
##  5  2013     1     1      554            600        -6      812            837
##  6  2013     1     1      554            558        -4      740            728
##  7  2013     1     1      555            600        -5      913            854
##  8  2013     1     1      557            600        -3      709            723
##  9  2013     1     1      557            600        -3      838            846
## 10  2013     1     1      558            600        -2      753            745
## # … with 166,148 more rows, and 11 more variables: arr_delay <dbl>,
## #   carrier <chr>, flight <int>, tailnum <chr>, origin <chr>, dest <chr>,
## #   air_time <dbl>, distance <dbl>, hour <dbl>, minute <dbl>, time_hour <dttm>
…
## # A tibble: 0 × 19
## # … with 19 variables: year <int>, month <int>, day <int>, dep_time <int>,
## #   sched_dep_time <int>, dep_delay <dbl>, arr_time <int>,
## #   sched_arr_time <int>, arr_delay <dbl>, carrier <chr>, flight <int>,
## #   tailnum <chr>, origin <chr>, dest <chr>, air_time <dbl>, distance <dbl>,
## #   hour <dbl>, minute <dbl>, time_hour <dttm>

Notice that the condition dep_time != NA filtered out all the rows! What happened is that dep_time != NA returned an NA value for all rows, hence all rows got filtered out.

The proper way to filter out missing values is to use the is.na() operator. This returns TRUE if the value is an NA and FALSE otherwise.

# select missing values from the dep_time column
filter(df, is.na(dep_time))

## # A tibble: 8,255 × 19
##     year month   day dep_time sched_dep_time dep_delay arr_time sched_arr_time
##    <int> <int> <int>    <int>          <int>     <dbl>    <int>          <int>
##  1  2013     1     1       NA           1630        NA       NA           1815
##  2  2013     1     1       NA           1935        NA       NA           2240
##  3  2013     1     1       NA           1500        NA       NA           1825
##  4  2013     1     1       NA            600        NA       NA            901
##  5  2013     1     2       NA           1540        NA       NA           1747
##  6  2013     1     2       NA           1620        NA       NA           1746
##  7  2013     1     2       NA           1355        NA       NA           1459
##  8  2013     1     2       NA           1420        NA       NA           1644
##  9  2013     1     2       NA           1321        NA       NA           1536
## 10  2013     1     2       NA           1545        NA       NA           1910
## # … with 8,245 more rows, and 11 more variables: arr_delay <dbl>,
## #   carrier <chr>, flight <int>, tailnum <chr>, origin <chr>, dest <chr>,
## #   air_time <dbl>, distance <dbl>, hour <dbl>, minute <dbl>, time_hour <dttm>

# filter out the missing values from the dep_time column
filter(df, !(is.na(dep_time)))

## # A tibble: 328,521 × 19
##     year month   day dep_time sched_dep_time dep_delay arr_time sched_arr_time
##    <int> <int> <int>    <int>          <int>     <dbl>    <int>          <int>
##  1  2013     1     1      517            515         2      830            819
##  2  2013     1     1      533            529         4      850            830
##  3  2013     1     1      542            540         2      923            850
##  4  2013     1     1      544            545        -1     1004           1022
##  5  2013     1     1      554            600        -6      812            837
##  6  2013     1     1      554            558        -4      740            728
##  7  2013     1     1      555            600        -5      913            854
##  8  2013     1     1      557            600        -3      709            723
##  9  2013     1     1      557            600        -3      838            846
## 10  2013     1     1      558            600        -2      753            745
## # … with 328,511 more rows, and 11 more variables: arr_delay <dbl>,
## #   carrier <chr>, flight <int>, tailnum <chr>, origin <chr>, dest <chr>,
## #   air_time <dbl>, distance <dbl>, hour <dbl>, minute <dbl>, time_hour <dttm>
…
We see 8255 missing values in the dep_time column, 8255 missing values in the dep_delay column, 8713 missing values in arr_time column and so on.

6.3 Arrange rows with arrange()

The arrange() function essentially sorts rows by values. The default is to sort in ascending order from smallest to largest values.

# sort flights from shortest to longest airtime
arrange(df, air_time)

## # A tibble: 336,776 × 19
##     year month   day dep_time sched_dep_time dep_delay arr_time sched_arr_time
##    <int> <int> <int>    <int>          <int>     <dbl>    <int>          <int>
##  1  2013     1    16     1355           1315        40     1442           1411
##  2  2013     4    13      537            527        10      622            628
##  3  2013    12     6      922            851        31     1021            954
##  4  2013     2     3     2153           2129        24     2247           2224
##  5  2013     2     5     1303           1315       -12     1342           1411
##  6  2013     2    12     2123           2130        -7     2211           2225
##  7  2013     3     2     1450           1500       -10     1547           1608
##  8  2013     3     8     2026           1935        51     2131           2056
##  9  2013     3    18     1456           1329        87     1533           1426
## 10  2013     3    19     2226           2145        41     2305           2246
## # … with 336,766 more rows, and 11 more variables: arr_delay <dbl>,
## #   carrier <chr>, flight <int>, tailnum <chr>, origin <chr>, dest <chr>,
## #   air_time <dbl>, distance <dbl>, hour <dbl>, minute <dbl>, time_hour <dttm>
…
We can also order in descending order from largest to smallest by calling the desc() function:

arrange(df, desc(air_time))

## # A tibble: 336,776 × 19
##     year month   day dep_time sched_dep_time dep_delay arr_time sched_arr_time
##    <int> <int> <int>    <int>          <int>     <dbl>    <int>          <int>
##  1  2013     3    17     1337           1335         2     1937           1836
##  2  2013     2     6      853            900        -7     1542           1540
##  3  2013     3    15     1001           1000         1     1551           1530
##  4  2013     3    17     1006           1000         6     1607           1530
##  5  2013     3    16     1001           1000         1     1544           1530
##  6  2013     2     5      900            900         0     1555           1540
##  7  2013    11    12      936            930         6     1630           1530
##  8  2013     3    14      958           1000        -2     1542           1530
##  9  2013    11    20     1006           1000         6     1639           1555
## 10  2013     3    15     1342           1335         7     1924           1836
## # … with 336,766 more rows, and 11 more variables: arr_delay <dbl>,
## #   carrier <chr>, flight <int>, tailnum <chr>, origin <chr>, dest <chr>,
## #   air_time <dbl>, distance <dbl>, hour <dbl>, minute <dbl>, time_hour <dttm>

We can combine this desc() with is.na() to sort all missing values to the top. To understand how, recall that is.na() returns a logical vector where NA values converted to TRUE. Since TRUE is stored as 1 and FALSE is stored as a 0, we can call desc() to then sort the TRUEs to the top. Here is the implementation:

arrange(df, desc(is.na(air_time)))

## # A tibble: 336,776 × 19
##     year month   day dep_time sched_dep_time dep_delay arr_time sched_arr_time
##    <int> <int> <int>    <int>          <int>     <dbl>    <int>          <int>
##  1  2013     1     1     1525           1530        -5     1934           1805
##  2  2013     1     1     1528           1459        29     2002           1647
##  3  2013     1     1     1740           1745        -5     2158           2020
##  4  2013     1     1     1807           1738        29     2251           2103
##  5  2013     1     1     1939           1840        59       29           2151
##  6  2013     1     1     1952           1930        22     2358           2207
##  7  2013     1     1     2016           1930        46       NA           2220
##  8  2013     1     1       NA           1630        NA       NA           1815
##  9  2013     1     1       NA           1935        NA       NA           2240
## 10  2013     1     1       NA           1500        NA       NA           1825
## # … with 336,766 more rows, and 11 more variables: arr_delay <dbl>,
## #   carrier <chr>, flight <int>, tailnum <chr>, origin <chr>, dest <chr>,
## #   air_time <dbl>, distance <dbl>, hour <dbl>, minute <dbl>, time_hour <dttm>

6.4 Select columns with select()

Often times, we want to focus on a subset of columns from the data frame (e.g. when doing EDA). We can select specific columns from a data frame using the select() function.

# get the year, month, dep_time, origin, destination and carrier columns
select(df, year, month, dep_time, origin, dest, carrier)

## # A tibble: 336,776 × 6
##     year month dep_time origin dest  carrier
##    <int> <int>    <int> <chr>  <chr> <chr>  
##  1  2013     1      517 EWR    IAH   UA     
##  2  2013     1      533 LGA    IAH   UA     
##  3  2013     1      542 JFK    MIA   AA     
##  4  2013     1      544 JFK    BQN   B6     
##  5  2013     1      554 LGA    ATL   DL     
##  6  2013     1      554 EWR    ORD   UA     
##  7  2013     1      555 EWR    FLL   B6     
##  8  2013     1      557 LGA    IAD   EV     
##  9  2013     1      557 JFK    MCO   B6     
## 10  2013     1      558 LGA    ORD   AA     
## # … with 336,766 more rows

One neat trick with select() is using it to reorder the columns:

# move the origin and destination columns to the front
select(df, origin, dest, everything())

## # A tibble: 336,776 × 19
##    origin dest   year month   day dep_time sched_dep_time dep_delay arr_time
##    <chr>  <chr> <int> <int> <int>    <int>          <int>     <dbl>    <int>
##  1 EWR    IAH    2013     1     1      517            515         2      830
##  2 LGA    IAH    2013     1     1      533            529         4      850
##  3 JFK    MIA    2013     1     1      542            540         2      923
##  4 JFK    BQN    2013     1     1      544            545        -1     1004
##  5 LGA    ATL    2013     1     1      554            600        -6      812
##  6 EWR    ORD    2013     1     1      554            558        -4      740
##  7 EWR    FLL    2013     1     1      555            600        -5      913
##  8 LGA    IAD    2013     1     1      557            600        -3      709
##  9 JFK    MCO    2013     1     1      557            600        -3      838
## 10 LGA    ORD    2013     1     1      558            600        -2      753
## # … with 336,766 more rows, and 10 more variables: sched_arr_time <int>,
## #   arr_delay <dbl>, carrier <chr>, flight <int>, tailnum <chr>,
## #   air_time <dbl>, distance <dbl>, hour <dbl>, minute <dbl>, time_hour <dttm>
…
The everything() function is an example of a helper function which is a sub-function composed with the main select() function to help augment the behavior of select(). Other important helper functions include:

starts_with("abc") matches column names that begin with "abc".

ends_with("xyz") matches column names that ends with "xyz".

contains("ijk") matches column names that contain "ijk".

matches("(.)\\1") selects column names that match the regular expression "(.)\\1". This specific regex matches any column names with repeated characters.

num_range("x", 1:3) matches columns named x1, x2, and x3

select(df, starts_with("dep"))

## # A tibble: 336,776 × 2
##    dep_time dep_delay
##       <int>     <dbl>
##  1      517         2
##  2      533         4
##  3      542         2
##  4      544        -1
##  5      554        -6
##  6      554        -4
##  7      555        -5
##  8      557        -3
##  9      557        -3
## 10      558        -2
## # … with 336,766 more rows

select(df, ends_with("time"))

## # A tibble: 336,776 × 5
##    dep_time sched_dep_time arr_time sched_arr_time air_time
##       <int>          <int>    <int>          <int>    <dbl>
##  1      517            515      830            819      227
##  2      533            529      850            830      227
##  3      542            540      923            850      160
##  4      544            545     1004           1022      183
##  5      554            600      812            837      116
##  6      554            558      740            728      150
##  7      555            600      913            854      158
##  8      557            600      709            723       53
##  9      557            600      838            846      140
## 10      558            600      753            745      138
## # … with 336,766 more rows
…
