Chapter 8 Data import and storage | _main.knit
…
Chapter 8 Data import and storage

8.1 Tibbles

The tidyverse uses tibble objects to store data. Tibbles are data frames with some tweaks. In this chapter, we’ll play around with tibbles to understand their properties and advantages.

library(tidyverse)

First we should talk about how to create a tibble. The easiest approach is to convert an existing data.frame object into a tibble. This can be done with the as_tibble() function:

as_tibble(iris)

## # A tibble: 150 × 5
##    Sepal.Length Sepal.Width Petal.Length Petal.Width Species
##           <dbl>       <dbl>        <dbl>       <dbl> <fct>  
##  1          5.1         3.5          1.4         0.2 setosa 
##  2          4.9         3            1.4         0.2 setosa 
##  3          4.7         3.2          1.3         0.2 setosa 
##  4          4.6         3.1          1.5         0.2 setosa 
##  5          5           3.6          1.4         0.2 setosa 
##  6          5.4         3.9          1.7         0.4 setosa 
##  7          4.6         3.4          1.4         0.3 setosa 
##  8          5           3.4          1.5         0.2 setosa 
##  9          4.4         2.9          1.4         0.2 setosa 
## 10          4.9         3.1          1.5         0.1 setosa 
## # … with 140 more rows
…
